^C:\C++ Я\REVERSE_CLEAR\CLIENT_REVERSE\RELEASE\CLIENT_REVERSE.OBJ|C:\C++ Я\REVERSE_CLEAR\CLIENT_REVERSE\RELEASE\CLIENT_REVERSE.RES
C:\C++ я\REVERSE_CLEAR\RELEASE\MEDIA_SERVICE.EXE
C:\C++ Я\REVERSE_CLEAR\RELEASE\MEDIA_SERVICE.PDB
